{
	"folders": {
		"templates": "templates/",
		"static": "static/",
		"output": "public/",
		"modules": ".modules/"
	},
	"modules": {
		"dependencies": {
			"file": "build.antipy.com/std@1.0.0-pre17",
			"json": "build.antipy.com/std@1.0.0-pre17",
			"markdown": "build.antipy.com/std@1.0.0-pre17",
			"parcel": "build.antipy.com/std@1.0.0-pre17",
			"util": "build.antipy.com/std@1.0.0-pre17"
		},
		"config": {
			"markdown": {
				"linkify": false
			}
		}
	},
	"pages": {
		"iterators": {
			"blog": "[file_pattern:data/blogs/blog_*]"
		},
		"slug": "/",
		"templates": [
			"layout.html"
		],
		"data": [
			"[file_file:data/layout.json][json_json]"
		],
		"sites": [
			{
				"slug": "index.html",
				"templates": [
					"home.html"
				]
			},
			{
				"slug": "blogs.html",
				"templates": [
					"blogs.html"
				],
				"data": [
					"[file_file:data/blogs/meta.json][json_json]"
				]
			},
			{
				"slug": "blog/{{blog}}.html",
				"templates": [
					"article.html"
				],
				"data": [
					"[file_file:data/blogs/blog_{{blog}}/text.md][util_plaintext:body]"
				]
			}
		]
	}
}